<?xml version="1.0" encoding="UTF-8"?>
<!-- Generated by org.testng.reporters.JUnitReportReporter -->
<testsuite hostname="REM-LT-220110A" failures="0" tests="9" name="com.unosquare.ApplyingEncapsulation" time="5.746" errors="0" timestamp="2022-02-21T07:52:44 CST" skipped="0">
  <testcase classname="com.unosquare.ApplyingEncapsulation" name="PutUpdate" time="0.587"/>
  <system-out>
    <![CDATA[Response body: {"name":"Athziri","job":"QA","updatedAt":"2022-02-21T13:52:22.086Z"}
Response code: 200
URL: https://reqres.in/api]]>
  </system-out>
  <testcase classname="com.unosquare.ApplyingEncapsulation" name="PostCreate" time="0.595"/>
  <system-out>
    <![CDATA[Response body: {"name":"Athziri","job":"QA","id":"906","createdAt":"2022-02-21T13:52:19.829Z"}
Response code: 201
URL: https://reqres.in/api]]>
  </system-out>
  <testcase classname="com.unosquare.ApplyingEncapsulation" name="PostRegisterUnsuccessfu" time="0.553"/>
  <system-out>
    <![CDATA[Response body: {"error":"Missing email or username"}
Response code: 400
URL: https://reqres.in/api]]>
  </system-out>
  <testcase classname="com.unosquare.ApplyingEncapsulation" name="GetListUsers" time="1.796"/>
  <system-out>
    <![CDATA[Response body: {"page":1,"per_page":6,"total":12,"total_pages":2,"data":[{"id":1,"email":"george.bluth@reqres.in","first_name":"George","last_name":"Bluth","avatar":"https://reqres.in/img/faces/1-image.jpg"},{"id":2,"email":"janet.weaver@reqres.in","first_name":"Janet","last_name":"Weaver","avatar":"https://reqres.in/img/faces/2-image.jpg"},{"id":3,"email":"emma.wong@reqres.in","first_name":"Emma","last_name":"Wong","avatar":"https://reqres.in/img/faces/3-image.jpg"},{"id":4,"email":"eve.holt@reqres.in","first_name":"Eve","last_name":"Holt","avatar":"https://reqres.in/img/faces/4-image.jpg"},{"id":5,"email":"charles.morris@reqres.in","first_name":"Charles","last_name":"Morris","avatar":"https://reqres.in/img/faces/5-image.jpg"},{"id":6,"email":"tracey.ramos@reqres.in","first_name":"Tracey","last_name":"Ramos","avatar":"https://reqres.in/img/faces/6-image.jpg"}],"support":{"url":"https://reqres.in/#support-heading","text":"To keep ReqRes free, contributions towards server costs are appreciated!"}}
Response code: 200
URL: https://reqres.in/api]]>
  </system-out>
  <testcase classname="com.unosquare.ApplyingEncapsulation" name="GetUserNotFound" time="0.585"/>
  <system-out>
    <![CDATA[Response body: {}
Response code: 404
URL: https://reqres.in/api]]>
  </system-out>
  <testcase classname="com.unosquare.ApplyingEncapsulation" name="PostRegister" time="0.565"/>
  <system-out>
    <![CDATA[Response body: {"id":4,"token":"QpwL5tke4Pnpja7X4"}
Response code: 200
URL: https://reqres.in/api]]>
  </system-out>
  <testcase classname="com.unosquare.ApplyingEncapsulation" name="GetUserResource" time="0.274"/>
  <system-out>
    <![CDATA[Response body: {"data":{"id":2,"name":"fuchsia rose","year":2001,"color":"#C74375","pantone_value":"17-2031"},"support":{"url":"https://reqres.in/#support-heading","text":"To keep ReqRes free, contributions towards server costs are appreciated!"}}
Response code: 200
URL: https://reqres.in/api]]>
  </system-out>
  <testcase classname="com.unosquare.ApplyingEncapsulation" name="GetUser" time="0.248"/>
  <system-out>
    <![CDATA[Response body: {"data":{"id":5,"email":"charles.morris@reqres.in","first_name":"Charles","last_name":"Morris","avatar":"https://reqres.in/img/faces/5-image.jpg"},"support":{"url":"https://reqres.in/#support-heading","text":"To keep ReqRes free, contributions towards server costs are appreciated!"}}
Response code: 200
URL: https://reqres.in/api]]>
  </system-out>
  <testcase classname="com.unosquare.ApplyingEncapsulation" name="PostLogin" time="0.543"/>
  <system-out>
    <![CDATA[Response body: {"token":"QpwL5tke4Pnpja7X4"}
Response code: 200
URL: https://reqres.in/api]]>
  </system-out>
</testsuite> <!-- com.unosquare.ApplyingEncapsulation -->
